"id","lat","lng","freq","level_flat","hub_height","is_valid"
,,,25,112.798454575739,,
,,,31.5,111.698454575739,,
,,,40,111.147948508752,,
,,,50,110.413507003533,,
,,,63,109.719157127387,,
,,,80,108.952586498632,,
,,,100,107.832080431645,,
,,,125,106.599859679036,,
,,,160,105.519445241122,,
,,,200,104.100159926744,,
,,,250,102.616874612367,,
,,,315,101.099718421525,,
,,,400,99.6834331071478,,
,,,500,98.2003685453797,,
,,,630,96.9001477927702,,
,,,800,95.6170832310021,,
,,,1000,94.4828624783926,,
,,,1250,93.416512602247,,
,,,1600,92.1162918496375,,
,,,2000,90.7997857826505,,
,,,2500,89.1503713447367,,
,,,3150,87.1666445251402,,
,,,4000,84.5161384581532,,
,,,5000,81.7332825150205,,
,,,6300,78.1832974483516,,
,,,8000,73.8168559431327,,
,,,10000,69.4830270673051,,
