r_label,disp_label
pop,population
f6.3,6.3 Hz
f8,8 Hz
f10,10 Hz
f12.5,12.5 Hz
f16,16 Hz
f20,20 Hz
f25,25 Hz
f31.5,31.5 Hz
f40,40 Hz
f50,50 Hz
f63,63 Hz
f80,80 Hz
f100,100 Hz
f125,125 Hz
f160,160 Hz
f200,200 Hz
f250,250 Hz
f315,315 Hz
f400,400 Hz
f500,500 Hz
f630,630 Hz
f800,800 Hz
f1k,1 kHz
f1.25k,1.25 kHz
f1.6k,1.6 kHz
f2k,2 kHz
f2.5k,2.5 kHz
f3.15k,3.15 kHz
f4k,4 kHz
f5k,5 kHz
f6.3k,6.3 kHz
f8k,8 kHz
f10k,10 kHz
weight_A,A-weighted sound level
prob_bother_f40,Probability of bothering due to 40 Hz
prob_bother_f80,Probability of bothering due to 80 Hz
